[
  {
    "topInstructions": ["Z|B"],
    "leftInstructions": ["G|Z"],
    "name": "The OR Symbol",
    "levelCategory": "tutorial"
  },
  {
    "topInstructions": ["[ABC]"],
    "leftInstructions": ["[BDF]"],
    "name": "A Range of characters",
    "levelCategory": "tutorial"
  },
  {
    "topInstructions": ["[^BH]"],
    "leftInstructions": ["[HKB]"],
    "name": "Characters NOT to include",
    "levelCategory": "tutorial"
  },
  {
    "topInstructions": ["F*"],
    "leftInstructions": ["F", "FV*"],
    "name": "Zero or more",
    "levelCategory": "tutorial"
  },
  {
    "topInstructions": ["E?R?"],
    "leftInstructions": ["E|Q", "R"],
    "name": "Zero or one",
    "levelCategory": "tutorial"
  },
  {
    "topInstructions": ["V+"],
    "leftInstructions": ["V|M", "V|Z"],
    "name": "One or more",
    "levelCategory": "tutorial"
  },
  {
    "topInstructions": ["(I)\\1"],
    "leftInstructions": ["I|B", "V|I"],
    "name": "Backreference",
    "levelCategory": "tutorial"
  },
  {
    "topInstructions": ["B{2,}"],
    "leftInstructions": ["B{1}", "K|B"],
    "name": "Specific amount",
    "levelCategory": "tutorial"
  },
  {
    "topInstructions": ["L|\\s"],
    "leftInstructions": ["\\s"],
    "name": "Space",
    "levelCategory": "tutorial"
  },
  {
    "topInstructions": ["[^SPEAK]+", "EP|IP|EF"],
    "leftInstructions": ["HE|LL|O+", "[PLEASE]+"],
    "name": "Beatles",
    "levelCategory": "beginner"
  },
  {
    "topInstructions": ["(A|B|C)\\1", "(AB|OE|SK)"],
    "leftInstructions": [".*M?O.*", "(AN|FE|BE)"],
    "name": "Naughty",
    "levelCategory": "beginner"
  },
  {
    "topInstructions": ["[COBRA]+", "(AB|O|OR)+"],
    "leftInstructions": ["(.)+\\1", "[^ABRC]+"],
    "name": "Ghost",
    "levelCategory": "beginner"
  },
  {
    "topInstructions": [".?.+", ".+"],
    "leftInstructions": ["[*]+", "/+"],
    "name": "Symbolism",
    "levelCategory": "beginner"
  },
  {
    "topInstructions": ["\\d[2480]", "56|94|73"],
    "leftInstructions": ["18|19|20", "[6789]\\d"],
    "name": "Airstrip One",
    "levelCategory": "beginner"
  },
  {
    "topInstructions": ["B+[A-Z]", ".+"],
    "leftInstructions": ["B{1}.", "L\\d"],
    "name": "Ambiguous",
    "levelCategory": "beginner"
  },
  {
    "topInstructions": ["\\s\\d+", "44|24|42"],
    "leftInstructions": ["\\s+\\d", "4+"],
    "name": "Numbers",
    "levelCategory": "beginner"
  },
  {
    "topInstructions": ["(.)O\\1", "[A-Z]+Y", "D.{2}"],
    "leftInstructions": ["(SM|GO)[A-F]", ".*A{2}", "S(Y)\\1"],
    "name": "Back and Specific",
    "levelCategory": "intermediate"
  },
  {
    "topInstructions": ["[IP][CD]E+", ".E.", "[^S]L+S"],
    "leftInstructions": ["SES|PRI|KLS", "[A-CE-L]+", ".+S{2}"],
    "name": "Free",
    "levelCategory": "intermediate"
  },
  {
    "topInstructions": [".*7\\d", "[2-5][3-5]*", ".P*(K|R)"],
    "leftInstructions": ["1(\\d)\\1", ".5P?", "3+[142][KL]?"],
    "name": "Elite",
    "levelCategory": "intermediate"
  },
  {
    "topInstructions": ["[^EMA]*A", "[AEI]{2}[LPU]+", "(G)(O|I)\\2\\1"],
    "leftInstructions": ["T{1}[KAG].", "S[^JIE].+", "[MEL]PO", ".L."],
    "name": "High Tech",
    "levelCategory": "intermediate"
  },
  {
	"topInstructions":["([TILT][Q\\s]){2}","([\\sSAD])\\d[SAND]\\1","[TIM\\s]{2}[TIM]\\s","\\s+\\d+?\\s*"],
	"leftInstructions":["\\s*[STOP]+\\s*","\\s*5\\s*7\\s*","[NICE]+\\s*","[LEND\\s]+"],
	"name":"The Empty Land",
	"possibleSolution":[["T"," "," "," "],[" ","5"," ","7"],["I","N","I"," "],[" "," "," "," "]],
	"levelCategory":"intermediate"
  },
  {
	"topInstructions":["[CORNFLAKES]+","[BEANCURD]+"],
	"leftInstructions":["[BEANS]+","[CORN]+","[POTATOES]+","[GUACAMOLE]+","[DRINK]+"],
	"name":"Shopping List",
	"possibleSolution":[["S","B"],["N","R"],["A","E"],["C","A"],["K","D"]],
	"levelCategory":"beginner",
	"comment": "I know, that this one can be solved in way to many ways, but I like the Idee, that one solution spells 'snack' and 'bread'..."
  },
  {
	"topInstructions":["8+2","7-2","5*252"],
	"leftInstructions":["[2-8]{3}","[58]-[58]","2*?"],
	"name":"A Math Class",
	"possibleSolution":[["8","7","2"],["8","-","5",""],["2","2","2"]],
	"levelCategory":"beginner"
  },
  {
	"topInstructions":["BBA|BBB|AAB","BAA|ABB|AAA","AAA|ABB|BAB"],
	"leftInstructions":["ABA|BAB|AAB","BAB|AAB|BAA","AAA|BBB|AAB"],
	"name":"Abba",
	"possibleSolution":[["B","A","B"],["B","A","A"],["A","A","B"]],
	"levelCategory":"beginner"
  },
  {
	"topInstructions":["(I|Z)I([AT]+)?","([TP][TIP])|IP"],
	"leftInstructions":["ZI|IT","([AIP])\\1"],
	"name":"Letter or Symbol",
	"possibleSolution":[["I","T"],["I","I"]],
	"levelCategory":"intermediate"
  },
  {
	"topInstructions":[".*D.*","(.).\\1\\1","(.)(.)\\2\\1"],
	"leftInstructions":["\\d.*","(.)\\1P","([A-Z])T\\1","L(.)\\1"],
	"name":"Back References",
	"possibleSolution":[["4","T","T"],["D","D","P"],["P","T","P"],["L","T","T"]],
	"levelCategory":"beginner"
  }
]
